Lösungen
…
Keine Duplikate zu finden.

Ad 4.

d4 <-
  d3 %>% 
  select(-c(v002, v006, v007))

Ad 5.

d4 %>% 
  mutate(v001 = na_if(v001, ""),
         v001 = na_if(v001, "N/A"))

## # A tibble: 90 × 80
##     v001  v003      v005 v008 
##    <dbl> <dbl>     <dbl> <chr>
##  1   794    25    1.03e9 2a02…
##  2   146    25    1.38e9 2a02…
##  3   459     4    3.55e8 2003…
##  4   324    25    9.95e8 134.…
##  5   257    25    6.89e8 2003…
##  6   182    25    1.70e9 2003…
##  7    95    25    1.70e9 93.1…
##  8   355    25    1.60e9 2a02…
##  9   570    25    8.10e8 2003…
## 10   173    25    7.67e7 134.…
## # … with 80 more rows, and 76
## #   more variables:
## #   v009 <chr>, v010 <chr>,
## #   v011 <chr>, v012 <chr>,
## #   v013 <chr>, v014 <chr>,
## #   v015 <chr>, v016 <chr>,
## #   v017 <chr>, v018 <chr>, …
…
