Aufgaben
…
replicate() wiederholt (repliziert) einen Ausdruck
(expression) n Mal.

Tabellieren wir dieses Ergebnis, und spaßeshalber, lassen wir unseren
Glücksspieler den Versuch jetzt 1000 Mal durchführen (zum Glück mit
Hilfe des Computers):

set.seed(42)
oft_50_muenzen <- replicate(n = 1000, expr = rbernoulli(n = 50) %>% sum())

tibble(oft_50_muenzen) %>% 
  count(oft_50_muenzen)

## # A tibble: 21 × 2
##    oft_50_muenzen     n
##             <int> <int>
##  1             15     1
##  2             16     2
##  3             17     6
##  4             18    18
##  5             19    20
##  6             20    37
##  7             21    62
##  8             22    98
##  9             23   107
## 10             24    93
## # … with 11 more rows
…
